{
  "name": "lego",
  "version": "0.1.0",
  "private": true,
  "scripts": {
    "serve": "vue-cli-service serve",
    "build": "vue-cli-service build"
  },
  "dependencies": {
    "@fortawesome/fontawesome-svg-core": "^1.2.26",
    "@fortawesome/free-brands-svg-icons": "^5.12.0",
    "@fortawesome/free-solid-svg-icons": "^5.12.0",
    "@fortawesome/vue-fontawesome": "^0.1.9",
    "axios": "^0.19.0",
    "buefy": "^0.8.8",
    "netlify-cli": "^2.25.0",
    "node-sass": "^4.13.0",
    "querystring": "^0.2.0",
    "sass-loader": "^8.0.0",
    "vue": "^2.6.10",
    "vue-router": "^3.1.3",
    "vuex": "^3.1.2"
  },
  "devDependencies": {
    "@vue/cli-service": "^4.1.0",
    "vue-template-compiler": "^2.6.10"
  }
}
